Administrative,Administrative_Duration,Informational,Informational_Duration,ProductRelated,ProductRelated_Duration,BounceRates,ExitRates,PageValues,SpecialDay,Month,OperatingSystems,Browser,Region,TrafficType,VisitorType,Weekend,Revenue
0,0,0,0,1,0,0.2,0.2,0,0,Feb,1,1,1,1,Returning_Visitor,FALSE,FALSE
0,0,0,0,2,64,0,0.1,0,0,Feb,2,2,1,2,Returning_Visitor,FALSE,FALSE
0,-1,0,-1,1,-1,0.2,0.2,0,0,Feb,4,1,9,3,Returning_Visitor,FALSE,FALSE
0,0,0,0,2,2.666666667,0.05,0.14,0,0,Feb,3,2,2,4,Returning_Visitor,FALSE,FALSE
0,0,0,0,10,627.5,0.02,0.05,0,0,Feb,3,3,1,4,Returning_Visitor,TRUE,FALSE
0,0,0,0,19,154.2166667,0.015789474,0.024561404,0,0,Feb,2,2,1,3,Returning_Visitor,FALSE,FALSE
0,-1,0,-1,1,-1,0.2,0.2,0,0.4,Feb,2,4,3,3,Returning_Visitor,FALSE,FALSE
1,-1,0,-1,1,-1,0.2,0.2,0,0,Feb,1,2,1,5,Returning_Visitor,TRUE,FALSE
0,0,0,0,2,37,0,0.1,0,0.8,Feb,2,2,2,3,Returning_Visitor,FALSE,FALSE
0,0,0,0,3,738,0,0.022222222,0,0.4,Feb,2,4,1,2,Returning_Visitor,FALSE,FALSE
0,0,0,0,3,395,0,0.066666667,0,0,Feb,1,1,3,3,Returning_Visitor,FALSE,FALSE
0,0,0,0,16,407.75,0.01875,0.025833333,0,0.4,Feb,1,1,4,3,Returning_Visitor,FALSE,FALSE
0,0,0,0,7,280.5,0,0.028571429,0,0,Feb,1,1,1,3,Returning_Visitor,FALSE,FALSE
0,0,0,0,6,98,0,0.066666667,0,0,Feb,2,5,1,3,Returning_Visitor,FALSE,FALSE
0,0,0,0,2,68,0,0.1,0,0,Feb,3,2,3,3,Returning_Visitor,FALSE,FALSE
2,53,0,0,23,1668.285119,0.008333333,0.016312636,0,0,Feb,1,1,9,3,Returning_Visitor,FALSE,FALSE
0,-1,0,-1,1,-1,0.2,0.2,0,0,Feb,1,1,4,3,Returning_Visitor,FALSE,FALSE
0,0,0,0,13,334.9666667,0,0.007692308,0,0,Feb,1,1,1,4,Returning_Visitor,TRUE,FALSE
0,0,0,0,2,32,0,0.1,0,0,Feb,2,2,1,3,Returning_Visitor,FALSE,FALSE
0,0,0,0,20,2981.166667,0,0.01,0,0,Feb,2,4,4,4,Returning_Visitor,FALSE,FALSE
0,0,0,0,8,136.1666667,0,0.008333333,0,1,Feb,2,2,5,1,Returning_Visitor,TRUE,FALSE
0,-1,0,-1,1,-1,0.2,0.2,0,0,Feb,3,3,1,3,Returning_Visitor,FALSE,FALSE
0,0,0,0,3,105,0,0.033333333,0,0,Feb,3,2,1,5,Returning_Visitor,FALSE,FALSE
0,0,0,0,2,15,0,0.1,0,0.8,Feb,2,4,1,3,Returning_Visitor,FALSE,FALSE
3,87.83333333,0,0,27,798.3333333,0,0.012643678,22.9160357,0.8,Feb,2,2,3,1,Returning_Visitor,FALSE,TRUE
10,1005.666667,0,0,36,2111.341667,0.004347826,0.014492754,11.43941195,0,Feb,2,6,1,2,Returning_Visitor,FALSE,TRUE
2,56,1,144,67,2563.783333,0,0.005797101,19.34265017,0,Mar,2,2,4,2,New_Visitor,FALSE,TRUE
3,94,2,125,55,1970.844805,0,0.001724138,96.25511582,0,Mar,2,4,1,2,New_Visitor,TRUE,TRUE
0,0,0,0,17,840.2333333,0,0.001666667,109.176,0,Mar,2,2,9,2,New_Visitor,FALSE,TRUE
1,18,0,0,16,1331.75,0,0.0125,33.79956701,0,Mar,2,5,2,3,New_Visitor,FALSE,TRUE